{
	"AppName"					: "surat",
	"Port" 						: "9090",
	"MongoConfig"     : "mongodb://localhost:27017",
	"MongoDbName"			: "development02",
	"TemplatePath"  	: "D:/PROJECTS/Reactjs/development/templates/",
	"PublicPath"			: "D:/PROJECTS/Reactjs/development/public/",
	"PDFPath"		    	: "D:/PROJECTS/Reactjs/development/public/pdf",
	"PDFURL"		    	: "/pdf/",
	"ImagesLogoPath"  : "D:/PROJECTS/Reactjs/development/public/images/depkeu.png",
	"TahunAgendaSMS"	: "2017",
	"UploadPath"			: "D:/PROJECTS/Reactjs/development/public/files/",
	"UploadSKLPath"		: "D:/PROJECTS/Reactjs/development/public/files/"
}
